<svg xmlns="http://www.w3.org/2000/svg" width="60" height="60" viewBox="0 0 60 60">
    <g fill="none" fill-rule="evenodd">
        <g>
            <g fill="#FFAE0F" fill-rule="nonzero">
                <g>
                    <g>
                        <path d="M59.997 43.325c-.406-6.1-3.251-14.104-8.456-23.79-3.854-7.173-7.646-12.657-7.683-12.712-.112-.161-.27-.286-.456-.359L28.392.562c-.118-.046-.245-.07-.372-.07h-3.002c-.323 0-.627.153-.814.412L19.2 7.789c-.121.167-.186.367-.186.572v1.967c.002 1.629 1.345 2.949 3.002 2.95H32.55c1.138-.003 2.18.63 2.685 1.632l4.655 9.15c-1.264 2.35-1.671 6.441-1.801 8.878-1.38-.905-3.528-1.955-6.066-1.955-3.237 0-5.846 1.183-6.968 1.788-1.823-1.174-7.867-4.738-14.048-4.738-7.335 0-10.58 3.107-10.715 3.239-.188.184-.293.434-.293.695v26.558c0 .543.448.983 1 .983h13.01c.417 0 .79-.254.937-.638l2.552-6.687c.613.34 1.253.63 1.914.87 2.769 1.02 6.338 1.537 10.609 1.537 2.105 0 7.121-.556 17.066-4.284 5.257-1.97 11.233-4.652 12.486-5.966.305-.32.447-.661.423-1.015zm-13.46 5.082c-7.116 2.68-13.136 4.216-16.515 4.216-9.154 0-12.17-2.547-12.307-2.668-.235-.24-.58-.343-.91-.273-.338.072-.613.31-.73.628l-2.758 7.231H2V32.424c.59-.433 1.23-.797 1.904-1.087C5.284 30.727 7.635 30 11.008 30c6.592 0 13.361 4.688 13.428 4.735.339.237.791.244 1.137.018.027-.018 2.792-1.802 6.45-1.802 2.895 0 5.266 1.78 6.034 2.429.113 1.2.673 4.46 3.418 6.258.46.298 1.078.175 1.383-.276.306-.45.184-1.058-.273-1.36-2.495-1.636-2.556-5.075-2.556-5.086 0-2.109.332-8.058 1.833-10.272.2-.294.223-.67.063-.986l-4.898-9.628c-.843-1.67-2.579-2.725-4.476-2.719H22.016c-.553 0-1-.44-1-.983v-.984h6.003c.553 0 1.001-.44 1.001-.983 0-.544-.448-.984-1-.984h-5.061l3.574-4.918h2.294l14.545 5.718c1.632 2.408 14.536 21.817 15.604 34.947-.95.784-5.233 2.947-11.438 5.283z"/>
                        <path d="M26.295 33.097c-.073-.492-.334-.895-.686-1.056-.352-.16-.74-.055-1.02.276-.278.331-.405.839-.332 1.331l.603 4.076c.205 1.382-.115 2.812-.853 3.808l-5.703 7.709c-.405.548-.405 1.438 0 1.987.406.549 1.065.549 1.47 0l5.703-7.71c1.23-1.659 1.764-4.041 1.421-6.345l-.603-4.076z"/>
                    </g>
                </g>
            </g>
        </g>
    </g>
</svg>
