<svg xmlns="http://www.w3.org/2000/svg" width="75" height="75" viewBox="0 0 75 75">
    <g fill="none" fill-rule="evenodd">
        <g>
            <g fill="#FFAE0F" fill-rule="nonzero">
                <g>
                    <g>
                        <path d="M73.75 12.5h-30c-.69 0-1.25.56-1.25 1.25V25c0 .69.56 1.25 1.25 1.25.135-.001.268-.023.395-.065l1.571-.524c1.706-.558 3.542.372 4.1 2.078.558 1.706-.372 3.541-2.078 4.1-.657.215-1.365.215-2.022 0l-1.571-.524c-.655-.218-1.363.136-1.581.79-.042.128-.064.261-.064.395v10h-10c-.69 0-1.25.56-1.25 1.25 0 .135.023.268.065.395l.524 1.571c.558 1.706-.372 3.542-2.078 4.1-1.706.558-3.542-.372-4.1-2.078-.215-.657-.215-1.365 0-2.022l.524-1.571c.218-.655-.136-1.363-.791-1.581-.127-.042-.26-.064-.394-.064H13.75c-.69 0-1.25.56-1.25 1.25v30c0 .69.56 1.25 1.25 1.25h60c.69 0 1.25-.56 1.25-1.25v-60c0-.69-.56-1.25-1.25-1.25zM42.564 62.106c-.042.127-.064.26-.064.394v10H15V45h8.266c-.955 3.029.726 6.258 3.755 7.213 3.028.955 6.258-.726 7.213-3.754.355-1.126.355-2.334 0-3.46H42.5v10c0 .691.56 1.25 1.25 1.25.135 0 .268-.022.395-.064l1.571-.524c1.706-.558 3.542.372 4.1 2.078.558 1.706-.372 3.541-2.078 4.1-.657.215-1.365.215-2.022 0l-1.571-.524c-.655-.218-1.363.136-1.58.79zM72.5 72.5H45v-8.266c3.029.955 6.258-.726 7.213-3.755.955-3.028-.726-6.258-3.754-7.213-1.126-.355-2.334-.355-3.46 0V45h10c.691 0 1.25-.56 1.25-1.25 0-.135-.022-.268-.064-.395l-.524-1.571c-.558-1.706.372-3.542 2.078-4.1 1.706-.558 3.541.372 4.1 2.078.215.657.215 1.365 0 2.022l-.524 1.571c-.218.655.136 1.363.79 1.581.128.042.26.064.395.064h10v27.5zm0-30h-8.266c.955-3.029-.726-6.258-3.755-7.213-3.028-.955-6.258.726-7.213 3.754-.355 1.126-.355 2.334 0 3.46H45v-8.267c1.736.563 3.637.259 5.111-.816 2.586-1.844 3.187-5.435 1.342-8.02-1.456-2.042-4.067-2.904-6.453-2.132V15h27.5v27.5z"/>
                        <path d="M35.959 10.766c-1.126-.355-2.333-.355-3.459 0V1.25C32.5.56 31.94 0 31.25 0h-30C.56 0 0 .56 0 1.25v30c0 .69.56 1.25 1.25 1.25h9.516c-.955 3.029.726 6.258 3.755 7.213 3.028.955 6.258-.726 7.213-3.754.355-1.126.355-2.334 0-3.46h9.516c.69 0 1.25-.559 1.25-1.25v-9.515c3.029.955 6.258-.726 7.213-3.755.955-3.028-.726-6.258-3.754-7.213zm-.72 8.573c-.658.215-1.366.215-2.023 0l-1.571-.524c-.655-.218-1.363.136-1.58.79-.043.128-.065.261-.065.395v10H20c-.69 0-1.25.56-1.25 1.25.001.135.023.268.065.395l.524 1.571c.558 1.706-.372 3.542-2.078 4.1-1.706.558-3.541-.372-4.1-2.078-.215-.657-.215-1.365 0-2.022l.524-1.571c.218-.655-.136-1.363-.79-1.581-.128-.042-.261-.064-.395-.064h-10V2.5H30v10c0 .69.56 1.25 1.25 1.25.135-.001.268-.023.395-.065l1.571-.524c1.706-.558 3.542.372 4.1 2.078.558 1.706-.372 3.541-2.078 4.1z"/>
                    </g>
                </g>
            </g>
        </g>
    </g>
</svg>
