<svg xmlns="http://www.w3.org/2000/svg" width="75" height="75" viewBox="0 0 75 75">
    <g fill="none" fill-rule="evenodd">
        <g>
            <g fill="#FFAE0F" fill-rule="nonzero">
                <g>
                    <g>
                        <path d="M75 27.668H34.464L57.011 0H24.214L0 40.1h32.957L18.08 75 75 27.668zM4.204 37.5l21.3-34.735h25.732L28.704 30.541h39.108L25.504 65.295l10.282-27.051L4.204 37.5z"/>
                    </g>
                </g>
            </g>
        </g>
    </g>
</svg>
