<svg xmlns="http://www.w3.org/2000/svg" viewBox="0 0 252 262">
    <g fill="none" fill-rule="evenodd">
        <g fill-rule="nonzero">
            <g>
                <path fill="#4A4077" d="M183.857 93.458c4.09 4.107 6.853 9.325 7.939 14.99 5.27 25.116 34.454 6.359 49.817 20.443 8.26 7.614 9.996 23.32 9.996 23.32-15.283 2.527-30.71 4.355-46.057 5.627l-9.16-9.713.723 10.349c-5.48.381-10.944.699-16.36.953l-5.48-24.225-1.108 24.496c-9.754.35-19.396.508-28.846.508l-3.712-30.981s20.345-8.52 28.589-35.767c2.153.931 4.125-.252 6.476-.252 2.35 0 5.028 1.183 7.183.252z" transform="translate(-190 -1059) translate(190 1059)"/>
                <path fill="#FFF" d="M180.609 72.491c0 33.04-23.249 63.915-50.989 60.36C92.15 137.574 74.61 94.26 74.61 61.22c0-33.038 27.271-48.015 55.011-48.015 27.74 0 50.989 26.247 50.989 59.285z" transform="translate(-190 -1059) translate(190 1059)"/>
                <path fill="#FFF" d="M201.609 77.53c0 7.017-9.657 16.676-15.743 16.676-2.555 0-7.442-.068-8.667-1.588-1.694-2.1.795-6.252.795-10.323.787-7.942 8.083-15.089 14.169-15.089s9.446 3.307 9.446 10.324zM87.609 75.4c0 3.976-7.198 14.405-16 11.205-8.8.8-16-11.223-16-15.2 0-3.975.403-11.199 8.798-11.199S87.609 71.424 87.609 75.4zM89.609 170.857l14.4-5.65c6.8 9.46 12.63 12.575 25.6 15.337-2.235 6.428-3.858 9.49-8.8 11.302-16.405 2.16-22.749-5.47-31.2-20.989zM166.609 168.64l-15.466-4.434c-4.763 9.981-21.534 2.53-21.534 18.163 3.458 5.477 6.776 9.112 11.963 9.837 16.451-1.135 21.355-4.357 25.037-23.567z" transform="translate(-190 -1059) translate(190 1059)"/>
                <path fill="#FFF" d="M108.175 141.679l41.517-5.473 3.917 36.746c-7.601 4.206-12.68 5.8-24.284 6.254-9.907-1.45-14.863-3.42-22.716-9.382l1.566-28.145z" transform="translate(-190 -1059) translate(190 1059)"/>
                <path fill="#4A4077" d="M73.609 62.353S75.952-1.335 128.736.235c52.783 1.57 56.51 62.228 56.873 69.808-1.911 1.448-3.578 3.191-4.939 5.163l.267-8.584s-58.697 3.217-75.007-34.999c0 0-.897 26.979-27.005 26.979-.2 3.03-.2 6.072 0 9.102l-5.316-5.351zM79.79 87.206c4.436 31.774 28.819 42.261 28.819 42.261l-2.49 29.74c-7.755-.424-15.239-.924-22.34-1.472l-2.33-.188-1.915-19.19-7.978 18.47c-4.468-.391-8.76-.814-12.894-1.237l-1.18-15.23-9.575 14.088-3.43-.376-8.825-1.158-7.612-1.018c-16.819-2.3-26.664-4.147-26.664-4.147-3.08-9.689 3.43-21.1 13.898-24.292 3.862-1.174 8.202-1.393 11.458-3.632 3.255-2.238 4.532-5.51 6.51-8.499 3.976-5.893 9.898-10.265 16.771-12.38 3.08-.955 6.383-1.488 9.304-2.646 4.348-1.728 7.97-4.851 10.276-8.859 4.245 1.55 10.197-.235 10.197-.235z" transform="translate(-190 -1059) translate(190 1059)"/>
                <path fill="#000" d="M78.791 59.206c-.175 8.21.438 16.416 1.831 24.505 1.282 8.081 3.828 15.904 7.544 23.172 3.687 7.242 9.207 13.361 15.995 17.732 3.419 2.116 7.104 3.754 10.956 4.869 3.857 1.083 7.82 1.742 11.816 1.966 8.005.715 16.062-.554 23.476-3.695 7.3-3.41 13.481-8.87 17.81-15.734 4.344-6.898 7.474-14.507 9.25-22.49 1.881-7.987 2.93-16.152 3.13-24.361.107 8.242-.687 16.47-2.363 24.536-1.657 8.13-4.697 15.907-8.984 22.982-4.37 7.15-10.716 12.846-18.248 16.383-7.609 3.283-15.89 4.644-24.134 3.965-4.106-.258-8.173-.965-12.129-2.11-5.96-1.738-11.492-4.726-16.24-8.77-4.748-4.043-8.605-9.052-11.321-14.702-3.638-7.43-6.08-15.404-7.23-23.617-1.223-8.148-1.61-16.402-1.159-24.63z" transform="translate(-190 -1059) translate(190 1059)"/>
                <path fill="#000" d="M108.609 78.206c1.656 0 3-1.79 3-4 0-2.209-1.344-4-3-4-1.657 0-3 1.791-3 4 0 2.21 1.343 4 3 4zM147.609 80.206c1.656 0 3-1.79 3-4 0-2.209-1.344-4-3-4-1.657 0-3 1.791-3 4 0 2.21 1.343 4 3 4zM126.54 74.206c.22 2.136-.091 4.29-.912 6.3-.83 2.014-1.966 3.911-3.377 5.636-1.3 1.648-2.517 3.372-2.162 5.159.205.962.718 1.846 1.476 2.54s1.726 1.166 2.78 1.356c-1.239.069-2.466-.254-3.474-.913-1.009-.659-1.738-1.614-2.065-2.706-.336-1.155-.24-2.38.27-3.48.481-1.006 1.081-1.962 1.79-2.85 2.795-3.235 4.736-7.013 5.674-11.042z" transform="translate(-190 -1059) translate(190 1059)"/>
                <path fill="#000" d="M113.609 93.1c.648 1.704 1.467 3.338 2.443 4.877.945 1.544 2.106 2.946 3.446 4.16 1.294 1.202 2.82 2.126 4.482 2.715.397.18.816.306 1.246.374.42.097.84.227 1.278.292.862.122 1.735.155 2.605.098 3.545-.198 6.883-1.744 9.335-4.324 1.307-1.26 2.459-2.673 3.43-4.21 1.048-1.544 1.963-3.175 2.735-4.876-.966 3.673-2.772 7.068-5.275 9.915-1.272 1.462-2.802 2.675-4.514 3.576-2.631 1.346-5.622 1.809-8.535 1.32-2.912-.489-5.591-1.903-7.644-4.034-2.595-2.735-4.343-6.168-5.032-9.883z" transform="translate(-190 -1059) translate(190 1059)"/>
                <g fill="#E891A1" opacity=".4">
                    <path d="M20.386 10.104c0 1.896-.59 3.75-1.696 5.325-1.105 1.577-2.677 2.805-4.516 3.53-1.84.726-3.863.916-5.815.546-1.952-.37-3.745-1.283-5.153-2.623C1.8 15.542.84 13.834.452 11.974c-.388-1.859-.189-3.786.573-5.537.761-1.752 2.051-3.249 3.706-4.302C6.386 1.082 8.332.52 10.322.52c2.67 0 5.23 1.01 7.116 2.807 1.888 1.798 2.948 4.235 2.948 6.777z" transform="translate(-190 -1059) translate(190 1059) translate(143.609 80.206)"/>
                </g>
                <g fill="#E891A1" opacity=".4">
                    <path d="M9.997 19.704c5.489 0 9.94-4.291 9.94-9.584 0-5.294-4.451-9.585-9.94-9.585-5.49 0-9.94 4.291-9.94 9.585 0 5.293 4.45 9.584 9.94 9.584z" transform="translate(-190 -1059) translate(190 1059) translate(90.609 80.206)"/>
                </g>
                <path fill="#000" d="M92.609 69.206l.686-.81c2.744-3.257 5.629-5 8.56-5.175.968-.058 1.94.057 2.855.338.914.282 1.752.723 2.462 1.297l.437.392-15 3.958zm9.73-5.404h-.453c-2.432.148-4.849 1.513-7.22 4.053l11.415-3.013c-1.102-.651-2.41-.991-3.743-.973v-.067zM154.609 72.206l-12-5.789.374-.414c.611-.65 1.361-1.146 2.192-1.45.83-.306 1.718-.411 2.595-.309 2.426.415 4.592 2.754 6.4 6.95l.439 1.012zm-10.6-6.038l8.939 4.33c-1.628-3.318-3.354-5.11-5.308-5.441-.648-.08-1.305-.022-1.93.17-.624.19-1.203.511-1.701.941zM179.676 75.571c1.414-2.213 3.195-4.166 5.269-5.774 2.14-1.688 4.785-2.601 7.507-2.59 1.386.054 2.743.411 3.979 1.045 1.285.594 2.396 1.507 3.232 2.653 1.551 2.337 2.209 5.158 1.85 7.944-.3 2.701-1.231 5.294-2.715 7.566-1.486 2.272-3.485 4.16-5.833 5.512-2.329 1.31-4.921 2.079-7.585 2.247-2.628.143-5.261-.19-7.771-.983 2.525.485 5.113.559 7.662.219 3.736-.436 7.218-2.127 9.879-4.798 2.66-2.671 4.344-6.167 4.778-9.92.33-2.422-.223-4.882-1.555-6.929-.729-.953-1.646-1.745-2.695-2.325-1.049-.58-2.205-.936-3.397-1.046-2.495-.125-4.958.595-6.994 2.045-2.123 1.411-4.015 3.143-5.611 5.134z" transform="translate(-190 -1059) translate(190 1059)"/>
                <path fill="#000" d="M178.609 86.206c.78-1.424 1.818-2.734 3.074-3.883 1.262-1.161 2.691-2.18 4.255-3.033 1.584-.853 3.326-1.471 5.153-1.829 1.818-.34 3.7-.34 5.518 0-1.754.22-3.479.58-5.153 1.077-1.62.52-3.174 1.18-4.637 1.97-2.968 1.643-5.72 3.553-8.21 5.698zM77.696 68.636c-1.614-2.025-3.534-3.783-5.69-5.208-2.04-1.464-4.51-2.197-7.013-2.08-.605.032-1.203.154-1.773.36l-.87.266c-.278.125-.548.266-.81.422-1.094.48-2.035 1.253-2.72 2.236-1.333 2.046-1.885 4.507-1.555 6.93.268 2.491 1.09 4.89 2.403 7.021 1.313 2.13 3.085 3.937 5.185 5.287 2.14 1.37 4.557 2.242 7.074 2.55 2.556.34 5.15.266 7.682-.22-2.512.794-5.146 1.122-7.775.97-2.678-.164-5.283-.94-7.619-2.268-2.347-1.361-4.342-3.26-5.823-5.543-1.48-2.283-2.405-4.885-2.698-7.595-.342-2.803.35-5.635 1.944-7.96.857-1.135 1.993-2.024 3.296-2.581.311-.14.622-.313.933-.438l1.01-.282c.671-.178 1.36-.278 2.053-.297 2.73.011 5.376.948 7.51 2.66 2.07 1.605 3.847 3.557 5.256 5.77z" transform="translate(-190 -1059) translate(190 1059)"/>
                <path fill="#000" d="M59.609 67.534c1.844-.437 3.751-.437 5.596 0 3.79.742 7.217 2.96 9.668 6.256 1.196 1.609 2.122 3.444 2.736 5.416-1.12-1.584-2.334-3.084-3.632-4.49-1.273-1.356-2.694-2.53-4.229-3.495-3.114-1.995-6.566-3.25-10.14-3.687zM106.609 151.925s37.413 4.115 43-19.14v-3.717s-25.006 6.38-40.663-.862l-2.337 23.72z" transform="translate(-190 -1059) translate(190 1059)"/>
                <path fill="#000" d="M129.479 180.203c-4.772.067-9.508-.839-13.92-2.663-4.413-1.826-8.41-4.531-11.746-7.953l-.204-.252 3.386-41.129 1.568.126-3.34 40.484c2.086 2.296 18.157 18.574 46.645 3.759l-4.829-43.173 1.568-.173 5.002 44.242-.47.252c-7.238 4.073-15.363 6.299-23.66 6.48z" transform="translate(-190 -1059) translate(190 1059)"/>
                <path fill="#FFF" d="M90.268 170.184c-10.882 4.648-20.964 10.984-29.875 18.777-1.593 1.372-3.28 2.808-4.778 4.291-4.811 4.53-9.193 9.497-13.09 14.836-2.459 3.378-4.74 6.882-6.832 10.497-3.568 6.168-6.728 12.563-9.46 19.144-1.162 2.776-2.26 5.6-3.328 8.455-.462 1.196-.908 2.409-1.322 3.637-.798 2.19-1.457 4.429-1.974 6.7l209 3.685c-.085-3.474-.373-6.942-.86-10.385-.548-4.07-1.319-8.106-2.31-12.092-1.554-6.557-3.686-12.964-6.37-19.144-1.589-3.597-3.38-7.102-5.366-10.497-4.074-7.006-9.053-13.443-14.81-19.143-8.377-8.295-20.4-15.602-34.16-20.739 0 0 1.067 19.479-13.472 23.084-14.54 3.605-20.448-2.871-22.04-9.109 0 0-1.593 8.2-12.04 8.965-10.447.766-20.4-5.36-26.913-20.962z" transform="translate(-190 -1059) translate(190 1059)"/>
                <path fill="#000" d="M228.513 261.047l-211.904.16 1.59-4.794c.523-2.308 1.186-4.582 1.987-6.808l.175-.479c.366-1.055.763-2.125 1.16-3.196.812-2.189 1.782-4.793 2.831-7.222.143-.416.318-.831.509-1.263 2.75-6.63 5.938-13.067 9.54-19.27 1.304-2.254 2.656-4.427 4.007-6.392.907-1.39 1.876-2.78 2.862-4.123 3.916-5.391 8.324-10.402 13.166-14.972 1.59-1.454 3.18-2.86 4.881-4.33 13.368-11.042 28.65-19.51 45.078-24.976l.509 1.598c-16.22 5.412-31.311 13.776-44.521 24.672-1.734 1.454-3.308 2.86-4.77 4.282-4.787 4.43-9.152 9.298-13.039 14.541-.986 1.326-1.924 2.7-2.83 4.059-1.336 2.013-2.671 4.154-3.96 6.392-3.548 6.139-6.687 12.506-9.397 19.063-.174.415-.35.815-.492 1.23-1.05 2.509-2.02 5.05-2.83 7.207-.382 1.038-.78 2.109-1.146 3.195l-.174.48c-.541 1.598-1.193 3.547-1.718 5.656l206.88 3.644c0-1.47-.222-4.794-.826-9.476v-.463c-.541-3.787-1.161-7.063-1.94-10.29-.045-.258-.104-.515-.175-.768l-.112-.511c-1.553-6.515-3.68-12.88-6.36-19.015-.97-2.19-2.003-4.33-3.068-6.392-.748-1.454-1.495-2.78-2.242-4.059-4.033-6.954-8.962-13.342-14.66-18.999-12.037-11.936-27.413-20.214-45.714-24.624l.382-1.598c18.587 4.474 34.217 12.895 46.444 25.04 5.8 5.747 10.817 12.244 14.915 19.318.763 1.295 1.59 2.653 2.29 4.139 1.065 2.061 2.114 4.234 3.18 6.392 2.723 6.228 4.89 12.689 6.471 19.302l.112.496c.079.268.143.54.19.815.78 3.196 1.4 6.551 1.956 10.418v.463c.495 3.48.78 6.985.859 10.499l-.096.959z" transform="translate(-190 -1059) translate(190 1059)"/>
                <path fill="#000" d="M143.197 194.195c-3.457.142-6.837-1.033-9.436-3.283-1.952-1.867-3.34-4.23-4.01-6.827-.732 2.17-2.022 4.117-3.743 5.65-3.035 2.633-7.281 3.686-12.58 3.097-16.482-1.78-22.756-20.777-22.82-20.978l1.573-.465c0 .186 6.023 18.238 21.482 19.895 4.86.526 8.697-.387 11.386-2.71 2.462-2.368 3.927-5.564 4.104-8.948h1.573s0 6.332 4.23 10.094c1.394 1.146 3.02 1.987 4.768 2.467 1.748.481 3.58.59 5.376.32 17.502-1.548 19.342-15.219 18.87-23.223l1.573-.078c.85 14.631-6.557 23.688-20.302 24.865-.802.093-1.431.124-2.044.124zM228.609 261.206l-209-4.064c.515-2.524 1.174-5.009 1.974-7.44l.144-.496H227.7v.495c.503 3.812.807 7.654.908 11.505zM225.609 238.206h-198c.157-.434.33-.852.504-1.27 2.702-6.637 5.831-13.082 9.367-19.297 1.251-2.208 2.57-4.353 3.958-6.433h174.425c1.115 2.144 2.165 4.29 3.154 6.433 2.66 6.228 4.772 12.686 6.308 19.297.094.434.205.852.284 1.27z" transform="translate(-190 -1059) translate(190 1059)"/>
            </g>
        </g>
    </g>
</svg>
