<svg xmlns="http://www.w3.org/2000/svg" viewBox="0 0 39 32">
    <g fill="none" fill-rule="evenodd">
        <g>
            <path fill="#FFF" d="M0 0H1400V10918H0z" transform="translate(-430 -8735)"/>
            <g fill="#000" fill-rule="nonzero">
                <g>
                    <g>
                        <path d="M.58 16.224v15.5h16v-15.5H5.913c0-5.698 4.785-10.333 10.667-10.333V.724c-8.823 0-16 6.953-16 15.5zM37.58 5.89V.725c-8.823 0-16 6.953-16 15.5v15.5h16v-15.5H26.913c0-5.698 4.785-10.333 10.667-10.333z" transform="translate(-430 -8735) translate(142 8545) translate(.433 190) translate(288)"/>
                    </g>
                </g>
            </g>
        </g>
    </g>
</svg>
